…
pf %>%
  group_by(age) %>%
  summarise(friend_count_mean = mean(friend_count),
            friend_count_median = median(friend_count),
            n = n()) %>%
  arrange(age)

## # A tibble: 101 x 4
##      age friend_count_mean friend_count_median     n
##    <int>             <dbl>               <dbl> <int>
##  1    13              165.                 74    484
##  2    14              251.                132   1925
##  3    15              348.                161   2618
##  4    16              352.                172.  3086
##  5    17              350.                156   3283
##  6    18              331.                162   5196
##  7    19              334.                157   4391
##  8    20              283.                135   3769
##  9    21              236.                121   3671
## 10    22              211.                106   3032
## # ... with 91 more rows
…
